
 _____                    ___ _   _  ____       
|  ___|__  _ __ _ __ ___ |_ _| \ | |/ ___| ___  
| |_ / _ \| '__| '_ ` _ \ | ||  \| | |  _ / _ \ 
|  _| (_) | |  | | | | | || || |\  | |_| | (_) |
|_|  \___/|_|  |_| |_| |_|___|_| \_|\____|\___/ 
                                                